0	2.3664	10.2
1	5.6669	14.3487
2	9.67916	17.5873
3	14.0999	19.5555
4	18.6189	20.2079
5	22.9395	19.5864
6	26.7966	17.8117
7	29.9715	15.0713
8	32.3037	11.6027
9	33.6967	7.67513
10	34.1206	3.57034
11	33.6099	-0.436588
12	32.2567	-4.09427
13	30.2016	-7.18978
14	27.6213	-9.55985
15	24.7151	-11.0982
16	21.6904	-11.7589
17	18.7493	-11.5551
18	16.0756	-10.555
19	13.8241	-8.87337
20	12.1127	-6.66171
21	11.0171	-4.09588
22	10.5686	-1.36331
23	10.7549	1.34972
24	11.5237	3.87006
25	12.7885	6.04792
26	14.4366	7.76508
27	16.3375	8.94042
28	18.3531	9.53282
29	20.3464	9.54125
30	22.1908	9.00229
31	23.7771	7.98538
32	25.0198	6.58625
33	25.8608	4.91916
34	26.2716	3.10829
35	26.2531	1.2792
36	25.8338	-0.449367
37	25.0661	-1.97268
38	24.0216	-3.20586
39	22.7849	-4.08807
40	21.4478	-4.58491
41	20.1026	-4.68893
42	18.8363	-4.4184
43	17.7253	-3.81453
44	16.8311	-2.93732
45	16.1975	-1.86053
46	15.8486	-0.666077
47	15.7887	0.561782
48	16.0034	1.74199
49	16.4614	2.8017
